Country,Country name
ARE,United Arab Emirates
ARG,Argentina
AUS,Australia
AUT,Austria
BDI,Burundi
BEL,Belgium
BGD,Bangladesh
BGR,Bulgaria
BIH,Bosnia and Herzegovina
BOL,Bolivia
BRA,Brazil
CAN,Canada
CHE,Switzerland
CHL,Chile
CHN,China
COL,Colombia
CRI,Costa Rica
CYP,Cyprus
CZE,Czechia
DEU,Germany
DNK,Denmark
ECU,Ecuador
EGY,Egypt
ESP,Spain
EST,Estonia
FIN,Finland
FRA,France
GBR,United Kingdom
GEO,Georgia
GRC,Greece
HRV,Croatia
HUN,Hungary
IDN,Indonesia
IND,India
IRL,Ireland
IRN,Iran
ITA,Italy
JPN,Japan
KAZ,Kazakhstan
KEN,Kenya
KOR,South Korea
KWT,Kuwait
LTU,Lithuania
LUX,Luxembourg
LVA,Latvia
MDA,Moldova
MEX,Mexico
MKD,North Macedonia
MLT,Malta
MNE,Montenegro
MNG,Mongolia
MYS,Malaysia
NGA,Nigeria
NLD,Netherlands
NOR,Norway
NZL,New Zealand
OMN,Oman
PAK,Pakistan
PER,Peru
PHL,Philippines
POL,Poland
PRT,Portugal
QAT,Qatar
ROU,Romania
RUS,Russia
SAU,Saudi Arabia
SGP,Singapore
SLV,El Salvador
SRB,Serbia
SVK,Slovakia
SVN,Slovenia
SWE,Sweden
THA,Thailand
TUN,Tunisia
TUR,Türkiye
TWN,Taiwan
UKR,Ukraine
URY,Uruguay
USA,United States
VNM,Vietnam
ZAF,South Africa
